<svg id="Layer_2" data-name="Layer 2" xmlns="http://www.w3.org/2000/svg" width="130.42" height="95" viewBox="0 0 130.42 95">
  <g id="Layer_1" data-name="Layer 1">
    <rect id="Rectangle_48" data-name="Rectangle 48" width="130.42" height="95" fill="none"/>
    <path id="Path_134" data-name="Path 134" d="M77.1,13.5a1.6,1.6,0,0,1-1.58-1.38A10.41,10.41,0,0,0,56.79,7.48,1.6,1.6,0,1,1,54.2,5.59a13.62,13.62,0,0,1,24.48,6.09,1.6,1.6,0,0,1-1.36,1.81Z" fill="#4fbfdd"/>
    <path id="Path_135" data-name="Path 135" d="M100.44,32H30a1.6,1.6,0,0,1-1.37-2.43l4.81-8a1.6,1.6,0,0,1,1.37-.78h2.6a1.6,1.6,0,0,1,0,3.2h-1.7L32.8,28.83H97.62L94.73,24H91a1.6,1.6,0,0,1,0-3.2h4.6a1.6,1.6,0,0,1,1.4.8l4.81,8a1.6,1.6,0,0,1-1.37,2.4Z" fill="#4fbfdd"/>
    <path id="Path_136" data-name="Path 136" d="M89.17,31.42a1.6,1.6,0,0,1-1.56-2l2.94-12.57L71.83,12.5,70.55,18a1.6,1.6,0,0,1-3.12-.73l1.65-7A1.6,1.6,0,0,1,71,9l21.83,5.11A1.6,1.6,0,0,1,94,16L90.73,30.18a1.6,1.6,0,0,1-1.56,1.24Z" fill="#4fbfdd"/>
    <path id="Path_137" data-name="Path 137" d="M38.65,31.83a1.6,1.6,0,0,1-1.59-1.41L34.63,9.82A1.6,1.6,0,0,1,36,8L62.82,4.88a1.6,1.6,0,0,1,1.78,1.4l1.46,12.34a1.6,1.6,0,0,1-3.18.38L61.6,8.25,38,11l2.25,19a1.6,1.6,0,0,1-1.4,1.78Z" fill="#4fbfdd"/>
    <path id="Path_138" data-name="Path 138" d="M77.16,31.8a1.6,1.6,0,0,1-1.56-1.23L72.8,18.91,50.11,24.37l1.21,5.05a1.6,1.6,0,0,1-3.11.75l-1.59-6.61a1.6,1.6,0,0,1,1.18-1.93l25.8-6.2a1.6,1.6,0,0,1,1.93,1.18l3.18,13.22a1.6,1.6,0,0,1-1.56,2Z" fill="#4fbfdd"/>
    <path id="Path_139" data-name="Path 139" d="M103.65,94.5H26.77a1.6,1.6,0,0,1-1.6-1.68l3.2-62.47A1.6,1.6,0,0,1,30,28.83h70.47a1.6,1.6,0,0,1,1.6,1.52l3.2,62.47a1.6,1.6,0,0,1-1.6,1.68Zm-75.2-3.2H102L98.92,32H31.49Z" fill="#4fbfdd"/>
    <path id="Path_140" data-name="Path 140" d="M77.22,44.85a4.81,4.81,0,1,1,3.4-1.434A4.81,4.81,0,0,1,77.22,44.85Zm0-6.41a1.6,1.6,0,1,0,1.6,1.6A1.6,1.6,0,0,0,77.22,38.44Z" fill="#4fbfdd"/>
    <path id="Path_141" data-name="Path 141" d="M53.19,44.85a4.81,4.81,0,1,1,3.415-1.423A4.81,4.81,0,0,1,53.19,44.85Zm0-6.41A1.6,1.6,0,1,0,54.8,40a1.6,1.6,0,0,0-1.61-1.56Z" fill="#4fbfdd"/>
    <path id="Path_142" data-name="Path 142" d="M77.1,38.44" fill="#4fbfdd"/>
    <path id="Path_143" data-name="Path 143" d="M65.21,64.07A13.63,13.63,0,0,1,51.59,50.45V41.64a1.6,1.6,0,1,1,3.2,0v8.81a10.41,10.41,0,1,0,20.82,0V42.26A1.62,1.62,0,0,1,77.1,40h.12a1.6,1.6,0,0,1,1.6,1.6v8.81A13.63,13.63,0,0,1,65.21,64.07Z" fill="#4fbfdd"/>
  </g>
</svg>
