<svg id="Layer_2" data-name="Layer 2" xmlns="http://www.w3.org/2000/svg" width="130.42" height="95" viewBox="0 0 130.42 95">
  <g id="Layer_1" data-name="Layer 1">
    <rect id="Rectangle_49" data-name="Rectangle 49" width="130.42" height="95" fill="none"/>
    <path id="Path_144" data-name="Path 144" d="M70.08,75.08H60.37a1.62,1.62,0,0,0,0,3.24h9.71a1.62,1.62,0,1,0,0-3.24Zm0,0" fill="#4fbfdd"/>
    <path id="Path_145" data-name="Path 145" d="M115.91,83a1.672,1.672,0,0,0,0-.19h0v-.15h0l-.07-.16h0l-9-16.91V21.43a1.62,1.62,0,0,0-3.24,0V64.29H26.91V18.75a4.86,4.86,0,0,1,4.86-4.86H96a1.62,1.62,0,1,0,0-3.24H31.76a8.1,8.1,0,0,0-8.09,8.09V65.51l-9,16.89h0l-.07.16h0v.15h0a1.69,1.69,0,0,0,0,.19c0,.05,0,.11,0,.16V86.3a8.1,8.1,0,0,0,8.09,8.09h85.23a8.1,8.1,0,0,0,8.09-8.09V83.01ZM26.26,67.53h77.9l7.45,14H18.81Zm81.56,23.74H22.59a4.86,4.86,0,0,1-4.86-4.86V84.79h94.94v1.62a4.86,4.86,0,0,1-4.86,4.86Zm0,0" fill="#4fbfdd"/>
    <path id="Path_146" data-name="Path 146" d="M105.67,4.72h4.72L71.77,43.35l-12-12a1.62,1.62,0,0,0-2.29,0l-26.9,26.9a1.62,1.62,0,1,0,2.29,2.29l25.8-25.72,12,12a1.62,1.62,0,0,0,2.29,0L112.68,7v4.72a1.62,1.62,0,0,0,3.24,0V3.1a1.62,1.62,0,0,0-1.62-1.62h-8.63a1.62,1.62,0,1,0,0,3.24Zm0,0" fill="#4fbfdd"/>
  </g>
</svg>
