<?xml version="1.0" encoding="utf-8"?>
<!-- Generator: Adobe Illustrator 23.0.2, SVG Export Plug-In . SVG Version: 6.00 Build 0)  -->
<svg version="1.1" id="Layer_1" xmlns="http://www.w3.org/2000/svg" xmlns:xlink="http://www.w3.org/1999/xlink" x="0px" y="0px"
	 viewBox="0 0 130.4 95" style="enable-background:new 0 0 130.4 95;" xml:space="preserve">
<style type="text/css">
	.st0{fill:none;}
	.st1{fill-rule:evenodd;clip-rule:evenodd;fill:#4FBFDD;}
</style>
<g>
	<rect id="Rectangle_47" class="st0" width="130.4" height="95"/>
	<g id="Shape_1">
		<path id="Path_133" class="st1" d="M108.4,58.1c-1.3-1.9-3.7-3.9-6.1-3.3c-2.6,0.7-5,3.3-7.7,6.3c-3.2,3.6-6.9,7.7-11.4,9
			c-8.9,2.6-20.1,0.7-23.6,0c-0.4-0.9-0.4-2,0-2.9c0.8-0.3,2.5-0.1,4.4,0.2c4.2,0.6,8.5,0.6,12.7-0.1c1.1-0.2,2.3-1.3,2.3-3.7
			c-0.1-3.2-2.4-8-7.6-8.9c-5.9-0.9-11.8-1.6-17.8-1.9c-3.5-0.2-9.3,4.2-11.2,5.8H22.1c-0.8,0-1.5,0.7-1.5,1.5v19.2
			c0,0.8,0.7,1.5,1.5,1.5h15.1c2.3,1.8,12.8,9.8,19.5,11.5c5.1,1.4,10.3,2.2,15.6,2.3c4.1,0.1,8.2-0.7,11.9-2.4
			C93,88,102.5,74.3,107.6,67c0.6-0.9,1.1-1.6,1.6-2.3c0.3-0.4,0.5-0.9,0.6-1.4v-2.1C109.5,60.1,109.1,59,108.4,58.1z M35.4,77.7
			H23.6V61.6h11.7L35.4,77.7z M106.7,63c-0.5,0.6-1,1.4-1.6,2.3C100.5,71.9,91,85.6,83,89.4c-7.8,3.7-18.2,1.7-25.4-0.1
			c-6.8-1.7-18.7-11.1-18.8-11.2h-0.1V61.6h4.4c0.4,0,0.7-0.1,1-0.3c2.8-2.3,7.6-5.5,9.5-5.4c5.8,0.3,11.6,1,17.4,1.9
			c2,0.4,3.8,1.7,4.5,3.7c0.5,0.9,0.6,2,0.5,3c-3.8,0.6-7.8,0.6-11.6,0c-2.5-0.3-4.4-0.5-5.8,0c-1.8,0.6-2.4,3-2.3,5
			s1.1,3.4,2.5,3.7c3.5,0.7,15.5,2.8,25.2,0c5.4-1.6,9.5-6.2,12.8-9.9c2.3-2.6,4.4-5,6.2-5.4c0.5-0.1,1.8,0.5,2.8,2.1
			S107.1,62.5,106.7,63z M66.6,29.1c0-0.7-0.6-1.3-1.3-1.3c-0.7,0-1.3,0.6-1.3,1.3c0,1.4,0.8,3.7,5.8,4.1v3.2c0,0.8,0.7,1.5,1.5,1.5
			s1.5-0.7,1.5-1.5v-3.2c3.7-0.4,5.8-2.5,5.8-5.9c0-2.5-1.1-5.4-5.8-5.9v-5.8c0.7,0,1.3,0.3,1.9,0.7c0.2,0.1,0.3,0.4,0.3,0.6
			c0,0.7,0.5,1.4,1.2,1.4c0.7,0,1.3-0.5,1.4-1.2c0.1-0.9-0.3-1.8-0.9-2.5c-1-1-2.4-1.6-3.9-1.7V9.6c0-0.8-0.7-1.5-1.5-1.5
			s-1.5,0.7-1.5,1.5v3.2c-5.1,0.5-5.8,3.4-5.8,5.9c0,3,2,4.7,5.8,5v6.8C68.1,30.4,66.6,30,66.6,29.1z M72.7,24
			c2.2,0.3,3.1,1.3,3.1,3.3c0,0.8,0,2.8-3.1,3.3V24z M66.6,18.8c0-1.5,0-3,3.1-3.3v5.7C66.6,20.9,66.6,19.5,66.6,18.8L66.6,18.8z
			 M71.2,45.3c12.3,0.1,22.4-9.8,22.5-22.2c0.1-12.3-9.8-22.4-22.2-22.5c-0.1,0-0.2,0-0.3,0v0c-12.3,0-22.3,10-22.3,22.3
			S58.9,45.3,71.2,45.3L71.2,45.3z"/>
	</g>
</g>
</svg>
