<svg id="Contract_Management" xmlns="http://www.w3.org/2000/svg" width="110.332" height="110.332" viewBox="0 0 110.332 110.332">
  <path id="Path_807" data-name="Path 807" d="M0,110.332V0H110.332V110.332Z" fill="none"/>
  <g id="Group_261" data-name="Group 261" transform="translate(19.164 15.309)">
    <path id="Path_808" data-name="Path 808" d="M97.337,25.593l-51.129-.006c-3.925,0-7.138,4.247-7.138,7.729V75.243h-.394L31.1,75.22c-.009.367,0,21.193.036,21.524.665,6.849,9.587,6.083,9.587,6.083h57.47c3.7.242,3.771-7.356,3.771-7.356V33.317h5.531c.241-8.245-10.154-7.723-10.154-7.723Z" transform="translate(-30.313 -24.483)" fill="#effafe"/>
    <path id="Path_809" data-name="Path 809" d="M39.142,102.982l-7.845-.028c-.007.353,0,20.349.029,20.666.528,6.577,7.611,5.841,7.611,5.841h.2v-26.48Z" transform="translate(-30.385 -52.222)" fill="#e1fff6"/>
    <path id="Path_810" data-name="Path 810" d="M41.873,99.5a1.1,1.1,0,0,1-.557-2.057c.464-.27.489-1.024.471-1.908-.028-1.619-.333-60.336-.329-62.834,0-4,4.08-8.619,8.665-8.619l51.214-.207c.183-.008,5.795-.255,9.041,2.923a7.639,7.639,0,0,1,2.214,5.936,1.1,1.1,0,0,1-1.1,1.071H72.328a1.1,1.1,0,0,1,0-2.207h38.02a5.11,5.11,0,0,0-1.514-3.223c-2.563-2.51-7.394-2.3-7.442-2.295l-51.251-.006c-3.213,0-6.73,3.7-6.73,6.627,0,.615.089,61.123.115,62.613.022,1.121.522,3.089-1.1,4.035a1.094,1.094,0,0,1-.553.15Z" transform="translate(-33.781 -23.866)" fill="#64a7e6"/>
    <path id="Path_811" data-name="Path 811" d="M39.392,107.448c-3.541,0-8.895-1.118-9.447-6.8-.043-.431-.073-21.527-.07-21.722a1.1,1.1,0,0,1,1.1-1.079h0l7.655.023a1.1,1.1,0,0,1,0,2.207h0l-6.561-.02c-.052,4.256-.233,19.63-.21,20.343.549,5.64,8.062,5.057,8.382,5.033l57.515,0a1.3,1.3,0,0,0,1.034-.351c1.3-1.2,1.62-4.756,1.631-5.9V37.019a1.1,1.1,0,1,1,2.207,0v62.16c0,.56-.114,5.448-2.336,7.513a3.441,3.441,0,0,1-2.607.939l-57.305-.205c-.314.028-.622.023-.987.023ZM62.906,38.123H58.493a1.1,1.1,0,0,1,0-2.207h4.413a1.1,1.1,0,0,1,0,2.207Zm-8.827,0H51.873a1.1,1.1,0,1,1,0-2.207H54.08a1.1,1.1,0,0,1,0,2.207Zm4.965,16.55H48.012a.552.552,0,1,1,0-1.1H59.045a.552.552,0,1,1,0,1.1Z" transform="translate(-29.876 -28.186)" fill="#64a7e6"/>
    <path id="Path_812" data-name="Path 812" d="M88.733,64.54H71.079a.552.552,0,0,1,0-1.1H88.733a.552.552,0,0,1,0,1.1Zm-1.1,6.62H57.84a.552.552,0,0,1,0-1.1h29.79a.552.552,0,1,1,0,1.1Zm0,6.62H57.84a.552.552,0,1,1,0-1.1h29.79a.552.552,0,1,1,0,1.1ZM75.493,84.4H57.84a.552.552,0,0,1,0-1.1H75.493a.552.552,0,1,1,0,1.1Z" transform="translate(-39.704 -38.053)" fill="#64a7e6"/>
    <g id="Group_257" data-name="Group 257" transform="translate(17.584 19.867)">
      <path id="Path_813" data-name="Path 813" d="M82.113,55.94H74.389a.552.552,0,0,1,0-1.1h7.723a.552.552,0,0,1,0,1.1Zm6.62,0H84.319a.552.552,0,1,1,0-1.1h4.413a.552.552,0,0,1,0,1.1Zm-16.55,0H57.84a.552.552,0,0,1,0-1.1H72.183a.552.552,0,1,1,0,1.1Z" transform="translate(-57.288 -54.837)" fill="#64a7e6"/>
    </g>
    <g id="Group_258" data-name="Group 258" transform="translate(17.584 61.793)">
      <path id="Path_814" data-name="Path 814" d="M73.286,121.3H57.84a.552.552,0,1,1,0-1.1H73.286a.552.552,0,0,1,0,1.1Z" transform="translate(-57.288 -120.197)" fill="#64a7e6"/>
    </g>
    <g id="Group_259" data-name="Group 259" transform="translate(56.204 8.838)">
      <path id="Path_815" data-name="Path 815" d="M126.071,88.428V38.5h-7.723V110.22l4.029-3.148,3.694,3.148Z" transform="translate(-117.801 -37.95)" fill="#3498db"/>
      <path id="Path_816" data-name="Path 816" d="M125.765,110.46a.548.548,0,0,1-.355-.13l-3.354-2.859-3.677,2.873a.546.546,0,0,1-.884-.43V38.191a.547.547,0,0,1,.547-.547h7.723a.547.547,0,0,1,.547.547v71.722a.546.546,0,0,1-.318.5.539.539,0,0,1-.229.051Zm-7.176-71.722v70.053l3.146-2.457a.547.547,0,0,1,.692.014l2.791,2.379V38.738Z" transform="translate(-117.495 -37.643)" fill="#64a7e6"/>
    </g>
    <g id="Group_260" data-name="Group 260" transform="translate(52.894 58.488)">
      <path id="Path_817" data-name="Path 817" d="M120.36,115.9a7.172,7.172,0,1,0,7.172,7.172,7.172,7.172,0,0,0-7.172-7.172Z" transform="translate(-112.641 -115.35)" fill="#ecfbff"/>
      <path id="Path_818" data-name="Path 818" d="M120.054,130.481a7.719,7.719,0,1,1,7.719-7.719A7.728,7.728,0,0,1,120.054,130.481Zm0-14.343a6.624,6.624,0,1,0,6.624,6.624,6.631,6.631,0,0,0-6.624-6.624Z" transform="translate(-112.335 -115.044)" fill="#64a7e6"/>
    </g>
  </g>
</svg>
