<svg xmlns="http://www.w3.org/2000/svg" width="97.999" height="97.449" viewBox="0 0 97.999 97.449">
  <g id="fork" transform="translate(0 -0.499)">
    <path id="Path_25" data-name="Path 25" d="M118.264,44.328l5.758-.365.031,0a13.558,13.558,0,0,0,10.106-5.9l4.552-6.678a26.948,26.948,0,0,0,4.321-19.772,6.081,6.081,0,0,0-5.7-5.057,26.941,26.941,0,0,0-19.111,6.66l-6.085,5.32a13.559,13.559,0,0,0-4.645,10.74c0,.01,0,.02,0,.031l.328,5.759a8.106,8.106,0,0,1-2.254,6.074L58.025,89.972a6.907,6.907,0,0,0-1.85,5.127,7.941,7.941,0,0,0,8.047,7.719q.316,0,.632-.025a6.909,6.909,0,0,0,4.875-2.459L112.5,47.3a8.109,8.109,0,0,1,5.763-2.97Zm-8.046,1.122L67.45,98.481a4,4,0,0,1-2.829,1.384,5.017,5.017,0,0,1-5.509-4.885,3.992,3.992,0,0,1,1.027-2.967l47.532-48.83a11.056,11.056,0,0,0,3.079-8.286l-.328-5.744a10.634,10.634,0,0,1,3.643-8.408l6.085-5.32a24.035,24.035,0,0,1,17.038-5.938,3.145,3.145,0,0,1,2.948,2.614,24.023,24.023,0,0,1-3.852,17.626l-4.552,6.679a10.635,10.635,0,0,1-7.91,4.625l-5.742.363a11.06,11.06,0,0,0-7.86,4.054Zm0,0" transform="translate(-45.418 -4.871)" fill="#4fbfdd"/>
    <path id="Path_26" data-name="Path 26" d="M329.526,316.313l-31.873-29.03a1.469,1.469,0,1,0-1.978,2.172l31.864,29.023a4,4,0,0,1,1.211,2.907,5.018,5.018,0,0,1-5.206,5.206,3.994,3.994,0,0,1-2.9-1.2l-28.4-31.181a1.469,1.469,0,1,0-2.172,1.978l28.408,31.188a6.907,6.907,0,0,0,5.007,2.155h.154a7.952,7.952,0,0,0,8.046-8.2,6.914,6.914,0,0,0-2.162-5.015Zm0,0" transform="translate(-234.241 -231.583)" fill="#4fbfdd"/>
    <path id="Path_27" data-name="Path 27" d="M17.726,39.179a13.6,13.6,0,0,0,8.9,3.6h.031l5.769.018a8.1,8.1,0,0,1,5.928,2.615L40.89,48.2a1.469,1.469,0,1,0,2.172-1.978l-2.545-2.793a11.054,11.054,0,0,0-8.086-3.571l-5.753-.018a10.674,10.674,0,0,1-6.894-2.758L3.064,17.205a.507.507,0,0,1,.747-.686L19.029,31.738a3.862,3.862,0,0,0,5.457,0l1.788-1.788h0l3.175-3.175h0l1.788-1.788a3.863,3.863,0,0,0,0-5.457L16.021,4.31a.507.507,0,0,1,.686-.747l19.875,16.72a10.669,10.669,0,0,1,2.759,6.894l.017,5.754a11.063,11.063,0,0,0,3.575,8.09l2.723,2.48a1.469,1.469,0,1,0,1.978-2.172l-2.719-2.476A8.109,8.109,0,0,1,42.3,32.92l-.018-5.769c0-.01,0-.021,0-.031a13.6,13.6,0,0,0-3.6-8.9,1.469,1.469,0,0,0-.135-.129L18.6,1.315a3.445,3.445,0,0,0-4.654,5.072L29.162,21.606a.921.921,0,0,1,0,1.3l-.75.749L11.451,6.7A1.469,1.469,0,0,0,9.374,8.774L26.335,25.735l-1.1,1.1L8.275,9.873A1.469,1.469,0,1,0,6.2,11.95l16.96,16.961-.749.75a.921.921,0,0,1-1.3,0L5.888,14.442A3.445,3.445,0,0,0,.816,19.1L17.6,39.045a1.368,1.368,0,0,0,.129.135Zm0,0" transform="translate(0 0)" fill="#4fbfdd"/>
  </g>
</svg>
