<svg xmlns="http://www.w3.org/2000/svg" width="98.528" height="103.453" viewBox="0 0 98.528 103.453">
  <g id="building" transform="translate(-12.186)">
    <g id="Group_26" data-name="Group 26" transform="translate(59.521 11.645)">
      <g id="Group_25" data-name="Group 25">
        <path id="Path_28" data-name="Path 28" d="M254.136,57.633h-5.81a1.874,1.874,0,0,0-1.871,1.872v6.972a1.873,1.873,0,0,0,1.871,1.871h5.81a1.874,1.874,0,0,0,1.872-1.872V59.5A1.874,1.874,0,0,0,254.136,57.633Zm-1.084,7.759H249.41v-4.8h3.641Z" transform="translate(-246.454 -57.633)" fill="#4fbfdd"/>
      </g>
    </g>
    <g id="Group_28" data-name="Group 28" transform="translate(71.074 11.645)">
      <g id="Group_27" data-name="Group 27">
        <path id="Path_29" data-name="Path 29" d="M311.309,57.633H305.5a1.874,1.874,0,0,0-1.871,1.872v6.972a1.873,1.873,0,0,0,1.871,1.871h5.81a1.874,1.874,0,0,0,1.871-1.872V59.5A1.874,1.874,0,0,0,311.309,57.633Zm-1.085,7.759h-3.641v-4.8h3.641Z" transform="translate(-303.627 -57.633)" fill="#4fbfdd"/>
      </g>
    </g>
    <g id="Group_30" data-name="Group 30" transform="translate(82.625 11.645)">
      <g id="Group_29" data-name="Group 29">
        <path id="Path_30" data-name="Path 30" d="M368.481,57.633h-5.81A1.874,1.874,0,0,0,360.8,59.5v6.972a1.874,1.874,0,0,0,1.871,1.871h5.81a1.874,1.874,0,0,0,1.872-1.872V59.5A1.874,1.874,0,0,0,368.481,57.633ZM367.4,65.392h-3.641v-4.8H367.4Z" transform="translate(-360.799 -57.633)" fill="#4fbfdd"/>
      </g>
    </g>
    <g id="Group_32" data-name="Group 32" transform="translate(59.521 28.958)">
      <g id="Group_31" data-name="Group 31">
        <path id="Path_31" data-name="Path 31" d="M254.136,143.318h-5.81a1.874,1.874,0,0,0-1.871,1.872v6.972a1.873,1.873,0,0,0,1.871,1.872h5.81a1.874,1.874,0,0,0,1.872-1.872V145.19A1.874,1.874,0,0,0,254.136,143.318Zm-1.084,7.76H249.41v-4.8h3.641Z" transform="translate(-246.454 -143.318)" fill="#4fbfdd"/>
      </g>
    </g>
    <g id="Group_34" data-name="Group 34" transform="translate(71.074 28.958)">
      <g id="Group_33" data-name="Group 33">
        <path id="Path_32" data-name="Path 32" d="M311.309,143.318H305.5a1.874,1.874,0,0,0-1.871,1.872v6.972a1.873,1.873,0,0,0,1.871,1.872h5.81a1.874,1.874,0,0,0,1.871-1.872V145.19A1.874,1.874,0,0,0,311.309,143.318Zm-1.085,7.76h-3.641v-4.8h3.641Z" transform="translate(-303.627 -143.318)" fill="#4fbfdd"/>
      </g>
    </g>
    <g id="Group_36" data-name="Group 36" transform="translate(82.625 28.958)">
      <g id="Group_35" data-name="Group 35">
        <path id="Path_33" data-name="Path 33" d="M368.481,143.318h-5.81a1.874,1.874,0,0,0-1.871,1.872v6.972a1.874,1.874,0,0,0,1.871,1.872h5.81a1.874,1.874,0,0,0,1.872-1.872V145.19A1.874,1.874,0,0,0,368.481,143.318Zm-1.084,7.76h-3.641v-4.8H367.4Z" transform="translate(-360.799 -143.318)" fill="#4fbfdd"/>
      </g>
    </g>
    <g id="Group_38" data-name="Group 38" transform="translate(59.521 46.272)">
      <g id="Group_37" data-name="Group 37">
        <path id="Path_34" data-name="Path 34" d="M254.136,229.005h-5.81a1.874,1.874,0,0,0-1.871,1.872v6.972a1.873,1.873,0,0,0,1.871,1.872h5.81a1.874,1.874,0,0,0,1.872-1.872v-6.972A1.874,1.874,0,0,0,254.136,229.005Zm-1.084,7.759H249.41v-4.8h3.641Z" transform="translate(-246.454 -229.005)" fill="#4fbfdd"/>
      </g>
    </g>
    <g id="Group_40" data-name="Group 40" transform="translate(71.074 46.272)">
      <g id="Group_39" data-name="Group 39">
        <path id="Path_35" data-name="Path 35" d="M311.309,229.005H305.5a1.874,1.874,0,0,0-1.871,1.872v6.972a1.874,1.874,0,0,0,1.871,1.872h5.81a1.874,1.874,0,0,0,1.871-1.872v-6.972A1.874,1.874,0,0,0,311.309,229.005Zm-1.085,7.759h-3.641v-4.8h3.641Z" transform="translate(-303.627 -229.005)" fill="#4fbfdd"/>
      </g>
    </g>
    <g id="Group_42" data-name="Group 42" transform="translate(82.625 46.272)">
      <g id="Group_41" data-name="Group 41">
        <path id="Path_36" data-name="Path 36" d="M368.481,229.005h-5.81a1.874,1.874,0,0,0-1.871,1.872v6.972a1.874,1.874,0,0,0,1.871,1.872h5.81a1.874,1.874,0,0,0,1.872-1.872v-6.972A1.874,1.874,0,0,0,368.481,229.005Zm-1.084,7.759h-3.641v-4.8H367.4Z" transform="translate(-360.799 -229.005)" fill="#4fbfdd"/>
      </g>
    </g>
    <g id="Group_44" data-name="Group 44" transform="translate(82.625 63.586)">
      <g id="Group_43" data-name="Group 43">
        <path id="Path_37" data-name="Path 37" d="M368.481,314.692h-5.81a1.874,1.874,0,0,0-1.871,1.871v6.972a1.874,1.874,0,0,0,1.871,1.872h5.81a1.874,1.874,0,0,0,1.872-1.872v-6.972A1.874,1.874,0,0,0,368.481,314.692Zm-1.084,7.759h-3.641v-4.8H367.4Z" transform="translate(-360.799 -314.692)" fill="#4fbfdd"/>
      </g>
    </g>
    <g id="Group_46" data-name="Group 46" transform="translate(12.186)">
      <g id="Group_45" data-name="Group 45" transform="translate(0)">
        <path id="Path_38" data-name="Path 38" d="M109.655,70.172a6.155,6.155,0,0,0-8.5-1.644l-4.064,2.719V7.671h.295A1.943,1.943,0,0,0,99.326,5.73V1.941A1.943,1.943,0,0,0,97.385,0H87.948a1.478,1.478,0,1,0,0,2.956H96.37V4.715h-41.5V2.956H78.693a1.478,1.478,0,1,0,0-2.956H53.858a1.943,1.943,0,0,0-1.941,1.941V5.73a1.943,1.943,0,0,0,1.941,1.941h.75V26.654H51.574V23.006a2.306,2.306,0,0,0-2.3-2.3H38.112a2.306,2.306,0,0,0-2.3,2.3v3.648H33.685a2.4,2.4,0,0,0-2.394,2.394V62.941q-.938-.06-1.882-.061H27.08v-.768a5.206,5.206,0,0,0-5.2-5.2H17.386a5.206,5.206,0,0,0-5.2,5.2v21.1a1.478,1.478,0,0,0,2.956,0v-21.1a2.247,2.247,0,0,1,2.244-2.244H21.88a2.247,2.247,0,0,1,2.244,2.244V95.366A2.247,2.247,0,0,1,21.88,97.61H17.386a2.247,2.247,0,0,1-2.244-2.244v-2.9a1.478,1.478,0,1,0-2.956,0v2.9a5.206,5.206,0,0,0,5.2,5.2H21.88a5.206,5.206,0,0,0,5.2-5.2v-.084l20.465,7.75q.06.023.122.04a9.867,9.867,0,0,0,2.689.381,9.261,9.261,0,0,0,1.444-.113h0L82.01,98.985l.022,0a14.869,14.869,0,0,0,7.044-3.156l.054-.046,19.524-17.56A6.156,6.156,0,0,0,109.655,70.172Zm-52.09-62.5h36.57V73.226l-12.3,8.23-4.123-.231-.105-1.056a9.031,9.031,0,0,0-.509-2.225q-.129-.352-.286-.689A8.947,8.947,0,0,0,74.6,74.3h4.153a1.874,1.874,0,0,0,1.871-1.872V65.457a1.874,1.874,0,0,0-1.871-1.871h-5.81a1.874,1.874,0,0,0-1.871,1.871V72.4a9.132,9.132,0,0,0-1.149-.239l-.038,0-.812-.094v-6.6A1.874,1.874,0,0,0,67.2,63.585h-5.81a1.874,1.874,0,0,0-1.871,1.872v5.5l-1.957-.225V7.671ZM74.029,71.345v-4.8H77.67v4.8Zm-7.911-4.8v4.8H62.874l-.4-.046V66.541ZM38.764,23.659h9.854v3H38.764ZM34.247,29.61H54.609v4.622H37.918a1.735,1.735,0,0,0-1.733,1.733v4.462a1.735,1.735,0,0,0,1.733,1.733H54.609v4.158H37.918a1.735,1.735,0,0,0-1.733,1.733v4.462a1.735,1.735,0,0,0,1.733,1.733H54.609V58.4H37.918a1.735,1.735,0,0,0-1.733,1.733v3.529q-.376-.088-.756-.165l-.358-.071c-.14-.027-.28-.053-.421-.078s-.269-.05-.4-.072Zm20.362,7.578V39.2H39.141V37.187Zm0,12.086V51.29H39.141V49.273Zm-15.468,14.1V61.359H54.609v2.016Zm15.468,2.956v4.062l-.455-.053a26.916,26.916,0,0,1-2.822-.558,26.548,26.548,0,0,1-5.2-1.911q-.332-.163-.66-.337-.536-.282-1.061-.588c-.258-.151-.518-.3-.779-.439l-.17-.092-.156-.084h11.3Zm52.077,9.683-19.5,17.542a11.909,11.909,0,0,1-5.605,2.5l-30.208,4.354-.041.006a6.628,6.628,0,0,1-2.8-.178L27.08,92.121V65.836h2.329a26.7,26.7,0,0,1,3.2.2q.322.039.643.085l.093.014q.81.12,1.606.289c.165.035.33.07.495.108l.246.059c.214.052.428.105.642.163l.115.031A26.767,26.767,0,0,1,41.3,68.625l.139.07q.3.149.59.307l.179.1c.235.128.47.259.7.395l.01.006q.942.551,1.915,1.029a29.548,29.548,0,0,0,8.924,2.743l.038,0,2.122.244,1.728.2,3.985.459.989.114h0l6.907.8a6.02,6.02,0,0,1,5.141,5.375l.051.515-27.7-2.7a1.478,1.478,0,0,0-.287,2.942L76.1,84.081a1.444,1.444,0,0,0,.188.024l5.879.33.083,0c.029,0,.058,0,.087-.006s.067,0,.1-.007.084-.015.126-.024.066-.013.1-.022.087-.03.131-.047c.027-.011.055-.019.082-.032a1.489,1.489,0,0,0,.2-.111l13.364-8.944h0l6.366-4.26a3.185,3.185,0,0,1,3.885,5.032Z" transform="translate(-12.186)" fill="#4fbfdd"/>
      </g>
    </g>
  </g>
</svg>
