<svg xmlns="http://www.w3.org/2000/svg" width="101.72" height="98.229" viewBox="0 0 101.72 98.229">
  <g id="running" transform="translate(0 -7.784)">
    <g id="Group_48" data-name="Group 48" transform="translate(0 7.784)">
      <g id="Group_47" data-name="Group 47">
        <path id="Path_39" data-name="Path 39" d="M100.009,91.793l-.175-.175a6.254,6.254,0,0,0-8.6,0l-9.121,9.3a1.172,1.172,0,0,1-1.754,0l-12.8-11.928A7.012,7.012,0,0,0,63,87.232H43.878a1.483,1.483,0,0,0-1.053.351L26.688,103.019a6.455,6.455,0,0,0-.351,8.6,5.948,5.948,0,0,0,8.77,0l11.4-12.1h4.034L23.882,129.33H7.393A7.178,7.178,0,0,0,.026,136a6.607,6.607,0,0,0,1.929,5.262,7.814,7.814,0,0,0,5.087,2.1H31.6a1.592,1.592,0,0,0,1.228-.526l12.63-13.506,10.524,11.051-3.157,20.347a7.115,7.115,0,0,0,3.859,8.244,6.2,6.2,0,0,0,2.982.7,6.881,6.881,0,0,0,3.157-.7,7.282,7.282,0,0,0,3.684-4.736l5.438-29.293a2.45,2.45,0,0,0-.526-1.579L56.859,118.806l11.577-11.577L76.5,115.3a6.036,6.036,0,0,0,8.42,0l15.085-15.085A6.036,6.036,0,0,0,100.009,91.793Zm-2.456,5.964L82.468,112.842a2.665,2.665,0,0,1-3.508,0l-9.3-9.3a1.7,1.7,0,0,0-2.456,0L53.175,117.578a1.592,1.592,0,0,0-.526,1.228,1.812,1.812,0,0,0,.7,1.4l15.085,15.085-5.262,28.241a4.851,4.851,0,0,1-1.929,2.28,3.538,3.538,0,0,1-2.982,0,3.8,3.8,0,0,1-1.929-4.385l3.333-21.4a1.992,1.992,0,0,0-.526-1.4l-12.454-12.98a1.592,1.592,0,0,0-1.228-.526,1.366,1.366,0,0,0-1.228.526L30.9,139.855H7.043A3.57,3.57,0,0,1,4.412,138.8a4.309,4.309,0,0,1-.877-2.631,3.582,3.582,0,0,1,3.859-3.333h17.19c.526,0,.877-.175,1.228-.175L55.631,99.335a1.912,1.912,0,0,0,.351-1.929A1.534,1.534,0,0,0,54.4,96.353h-8.77a1.9,1.9,0,0,0-1.228.526l-11.928,12.63a2.159,2.159,0,0,1-1.754.877,2.817,2.817,0,0,1-1.929-.877,2.713,2.713,0,0,1,.175-3.684L44.58,90.916H63.173a3.236,3.236,0,0,1,2.1.877l12.8,11.928a4.878,4.878,0,0,0,6.666-.175l9.121-9.3a2.668,2.668,0,0,1,3.508,0l.175.175A2.44,2.44,0,0,1,97.553,97.757Z" transform="translate(0 -71.445)" fill="#4fbfdd"/>
        <path id="Path_40" data-name="Path 40" d="M363.761,28.833a10.525,10.525,0,1,0-10.525-10.524A10.555,10.555,0,0,0,363.761,28.833Zm0-17.541a7.016,7.016,0,1,1-7.016,7.016A7.037,7.037,0,0,1,363.761,11.292Z" transform="translate(-283.046 -7.784)" fill="#4fbfdd"/>
      </g>
    </g>
  </g>
</svg>
